<svg version="1.1" id="Layer_1" xmlns="http://www.w3.org/2000/svg" xmlns:xlink="http://www.w3.org/1999/xlink" x="0px"
     y="0px" viewBox="0 0 22.5 22.2">
    <polygon points="0,22.2 8.8,22.2 8.8,13.5 0,13.5 "/>
    <path fill="#75AF26" d="M0,0l0,10.8l2.3,0c6.1,0,9.2,3.1,9.2,9.1l0,2.3l11,0l0-22.2L0,0z M17.9,4.6l0,13l-1.8,0
	C15.3,11.2,11.2,7.1,4.7,6.4l0-1.8L17.9,4.6z"/>
</svg>
